
INPUT-UNITS     INCHES

WHEEL     1

LINE            0.04            D184
LINE             0.1            D190
LINE               2            D185
LINE             2.5            D195
LINE               3            D181
LINE            3.54            D194
LINE            3.94            D178
LINE               4            D187
LINE             4.5            D173
LINE               5            D175
LINE               6            D172
LINE               7            D191
LINE               8            D174
LINE            9.84            D182
LINE              10            D179
LINE              12            D189
LINE              14            D180
LINE              15            D192
LINE              16            D177
LINE              20            D183
LINE           23.62            D186
LINE            24.5            D199
LINE              25            D188
LINE              30            D176
LINE              40            D193
LINE              50            D196
LINE             264            D197
CIRCLE            22            D128
CIRCLE            24            D43
CIRCLE            25            D16
CIRCLE            26            D72
CIRCLE            30            D15
CIRCLE            32            D127
CIRCLE            35            D31
CIRCLE            36            D11
CIRCLE            37            D42
CIRCLE            40            D28
CIRCLE            45            D108
CIRCLE            46            D110
CIRCLE            47            D10
CIRCLE            55            D14
CIRCLE            60            D26
CIRCLE            63            D30
CIRCLE         64.96            D85
CIRCLE            65            D109
CIRCLE            68            D27
CIRCLE            70            D37
CIRCLE            75            D124
CIRCLE            80            D29
CIRCLE         84.65            D86
CIRCLE            88            D25
CIRCLE            90            D36
CIRCLE           100            D40
CIRCLE           110            D38
CIRCLE           116            D123
CIRCLE           118            D41
CIRCLE           120            D39
CIRCLE           200            D13
CIRCLE           216            D122
CIRCLE           250            D12
SQUARE            60   0.00000            D198
SQUARE            69   0.00000            D97
SQUARE            70   0.00000            D76
SQUARE            90   0.00000            D73
SQUARE           106   0.00000            D115
SQUARE        135.83   0.00000            D155
SQUARE        141.83   0.00000            D156
RECTANGLE          4         4   0.00000  D49
RECTANGLE          4        20   0.00000  D69
RECTANGLE          4        30   0.00000  D65
RECTANGLE          5        20   0.00000  D71
RECTANGLE          6         6   0.00000  D48
RECTANGLE          9        32   0.00000  D117
RECTANGLE         10        28   0.00000  D105
RECTANGLE       11.8      33.5   0.00000  D151
RECTANGLE      11.81     35.43   0.00000  D101
RECTANGLE      11.81     59.06   0.00000  D138
RECTANGLE         12        35   0.00000  D35
RECTANGLE         12        63   0.00000  D18
RECTANGLE         14        20   0.00000  D114
RECTANGLE         14        30   0.00000  D53
RECTANGLE         14        40   0.00000  D63
RECTANGLE         14        50   0.00000  D22
RECTANGLE         15        26   0.00000  D142
RECTANGLE         15        40   0.00000  D67
RECTANGLE         15        48   0.00000  D45
RECTANGLE       15.8      37.5   0.00000  D153
RECTANGLE         16        40   0.00000  D147
RECTANGLE         17        42   0.00000  D146
RECTANGLE         18        40   0.00000  D55
RECTANGLE         19        52   0.00000  D47
RECTANGLE         20         4   0.00000  D68
RECTANGLE         20         5   0.00000  D70
RECTANGLE         20        14   0.00000  D113
RECTANGLE      21.65     23.62   0.00000  D158
RECTANGLE      23.62     21.65   0.00000  D159
RECTANGLE      23.62      37.4   0.00000  D161
RECTANGLE      23.62     61.02   0.00000  D130
RECTANGLE         24        40   0.00000  D51
RECTANGLE         25        27   0.00000  D168
RECTANGLE         25        36   0.00000  D140
RECTANGLE         25        70   0.00000  D84
RECTANGLE         26        15   0.00000  D141
RECTANGLE         27        25   0.00000  D169
RECTANGLE         27        52   0.00000  D144
RECTANGLE         28        10   0.00000  D104
RECTANGLE         28        40   0.00000  D80
RECTANGLE         29       110   0.00000  D165
RECTANGLE         30         4   0.00000  D64
RECTANGLE         30        14   0.00000  D52
RECTANGLE         30        47   0.00000  D103
RECTANGLE         30        63   0.00000  D24
RECTANGLE      31.81     55.43   0.00000  D99
RECTANGLE         32         9   0.00000  D116
RECTANGLE      33.46     39.37   0.00000  D134
RECTANGLE       33.5      11.8   0.00000  D152
RECTANGLE         34        70   0.00000  D20
RECTANGLE         35        12   0.00000  D34
RECTANGLE      35.43     11.81   0.00000  D100
RECTANGLE      35.43      37.4   0.00000  D126
RECTANGLE      35.43     39.37   0.00000  D136
RECTANGLE         36        25   0.00000  D139
RECTANGLE       37.4     23.62   0.00000  D160
RECTANGLE       37.4     35.43   0.00000  D125
RECTANGLE       37.4      37.4   0.00000  D157
RECTANGLE       37.5      15.8   0.00000  D154
RECTANGLE         39        63   0.00000  D111
RECTANGLE         39       130   0.00000  D163
RECTANGLE      39.37     33.46   0.00000  D133
RECTANGLE      39.37     35.43   0.00000  D135
RECTANGLE       39.6      39.6   0.00000  D90
RECTANGLE         40        14   0.00000  D62
RECTANGLE         40        15   0.00000  D66
RECTANGLE         40        16   0.00000  D148
RECTANGLE         40        18   0.00000  D54
RECTANGLE         40        24   0.00000  D50
RECTANGLE         40        28   0.00000  D79
RECTANGLE      41.34     42.52   0.00000  D166
RECTANGLE         42        17   0.00000  D145
RECTANGLE      42.52     41.34   0.00000  D167
RECTANGLE      43.31     55.12   0.00000  D131
RECTANGLE         45        90   0.00000  D82
RECTANGLE      45.28     57.09   0.00000  D121
RECTANGLE         47        30   0.00000  D102
RECTANGLE         48        15   0.00000  D44
RECTANGLE         48        60   0.00000  D78
RECTANGLE      49.21      68.9   0.00000  D118
RECTANGLE         50        14   0.00000  D21
RECTANGLE         50        50   0.00000  D89
RECTANGLE         50       118   0.00000  D74
RECTANGLE      51.18     59.06   0.00000  D170
RECTANGLE         52        19   0.00000  D46
RECTANGLE         52        27   0.00000  D143
RECTANGLE      55.12     43.31   0.00000  D132
RECTANGLE      55.43     31.81   0.00000  D98
RECTANGLE      57.09     45.28   0.00000  D120
RECTANGLE      59.06     11.81   0.00000  D137
RECTANGLE      59.06     51.18   0.00000  D171
RECTANGLE         60        48   0.00000  D77
RECTANGLE         60        80   0.00000  D91
RECTANGLE         60       100   0.00000  D106
RECTANGLE      61.02     23.62   0.00000  D129
RECTANGLE         63        12   0.00000  D17
RECTANGLE         63        30   0.00000  D23
RECTANGLE         63        39   0.00000  D112
RECTANGLE         65       112   0.00000  D32
RECTANGLE         67       130   0.00000  D95
RECTANGLE       68.9     49.21   0.00000  D119
RECTANGLE         70        25   0.00000  D83
RECTANGLE         70        34   0.00000  D19
RECTANGLE         70        94   0.00000  D149
RECTANGLE         80        60   0.00000  D92
RECTANGLE         87       160   0.00000  D93
RECTANGLE         90        45   0.00000  D81
RECTANGLE         94        70   0.00000  D150
RECTANGLE        100        60   0.00000  D107
RECTANGLE        110        29   0.00000  D164
RECTANGLE        112        65   0.00000  D33
RECTANGLE        118        50   0.00000  D75
RECTANGLE        126       272   0.00000  D87
RECTANGLE        130        39   0.00000  D162
RECTANGLE        130        67   0.00000  D96
RECTANGLE        150       220   0.00000  D59
RECTANGLE        160        87   0.00000  D94
RECTANGLE        160       225   0.00000  D61
RECTANGLE        200       300   0.00000  D57
RECTANGLE        220       150   0.00000  D58
RECTANGLE        225       160   0.00000  D60
RECTANGLE        272       126   0.00000  D88
RECTANGLE        300       200   0.00000  D56

