-40,221.9
-30,125.1
-20,73.38
-10,44.72
0,28.16
10,18.25
20,12.14
25,10
30,8.283
40,5.781
50,4.12
60,2.996
70,2.214
80,1.665
85,1.451
90,1.271
100,0.9832
110,0.7707
120,0.6614
125,0.5469
